title,release_year,price,description,imdb_id,poster_url
Мстители: Эра Альтрона,2015,24.99,"Человечество на грани уничтожения. На этот раз людям угрожает Альтрон — искусственный интеллект, ранее созданный для того, чтобы защищать Землю от любых угроз.",679830,"679830.jpg"
Игра на выживание,2014,20.99,"Корпоративная акула и его бедный молодой гид сыграют в самую опасную игру во время охоты в пустыне Мохаве",762833,"762833.jpg"
Дом,2015,26.99,"Захватив Землю, раса пришельцев Був тут же начинает заниматься её благоустройством и реорганизацией. «Не стоит благодарности!» — заявляют они землянам, собранным на время в отдельных резервациях. Находчивая и рисковая девочка по имени Дар, чудом сбежавшая от пришельцев, встречает на своем пути самого раздражающе-оптимистичного Бува по имени О, отвергнутого своими инопланетными собратьями. Этой, казалось бы, несовместимой парочке предстоит спасти нашу планету. Хорошо, что у них есть летающий автомобиль!",688384,"688384.jpg"
Большая игра,2014,22.99,"История робкого подростка по имени Оскари. Как и его прадеды, согласно традициям, мальчик должен провести один день и одну ночь в непроходимой глуши. Вооружённый только луком и стрелами, он должен вернуться с добычей, которая ознаменует его становление как мужчины. Кто бы мог подумать, что такой добычей станет президент США! Вот так судьба одного из самых влиятельных людей во всем мире оказывается в руках подростка. Вовлеченные в смертельно опасную, но от этого не менее смешную игру в «кошки-мышки», имея всего несколько часов форы — Оскари и Президент США должны сплотиться, чтобы пережить самую необычную ночь в своей жизни.",639095,"639095.jpg"
Форсаж 7,2015,19.00,"Они покорили Токио и Рио, Лос-Анджелес и Лондон. Но мир больше не играет по их правилам. Зной арабских пустынь, неприлично высокие небоскребы, миллионы долларов на колесах и очень, очень знаменитый злодей. Скорость не знает границ.",754481,"754481.jpg"
Хозяин джунглей,2014,15.99,"В далеких джунглях реки Параны творится беззаконие. Группа вооруженных наемников терроризирует население, насильно заставляя отказываться от участков земли в их пользу. Местным жителям не у кого искать помощи кроме духов реки. После проведения священного обряда из джунглей появляется таинственный молодой человек, который говорит, что он пришел помочь.",576394,"576394.jpg"
Отель «Мэриголд». Заселение продолжается,2015,13.99,"Отель «Мэриголд» не был бы экзотическим, если бы не поселил двух незнакомых друг с другом людей в один номер; и он не стал бы лучшим, если бы из этого не произошло ничего хорошего.",723912,"723912.jpg"
Марсианин,2015,19.99,"Марсианская миссия «Арес-3» в процессе работы была вынуждена экстренно покинуть планету из-за надвигающейся песчаной бури. Инженер и биолог Марк Уотни получил повреждение скафандра во время песчаной бури. Сотрудники миссии, посчитав его погибшим, эвакуировались с планеты, оставив Марка одного.",841700,"841700.jpg"
Боги Египта,2016,24.99,"Сет — беспощадный бог тьмы. Убив своего брата Осириса, он захватывает власть в Египте, и погружает некогда мирную и процветающую империю в хаос. Немногие осмеливаются восстать против него. Молодой вор, чья любовь была пленена богом, стремится свергнуть Сета с помощью могущественного бога Гора.",682886,"682886.jpg"
Доктор Стрэндж,2016,17.99,"Стефан Стрейндж был искусным хирургом, слишком влюбленным в свою работу и бесконечно уверенным в себе. Страшная автокатастрофа, в которой, по вине Стефана, погибла его беременная жена, лишила руки доктора былой чувствительности. Потеряв смысл жизни, герой отправился на поиски средства исцеления тела и души и, спустя многие годы, стал одним из могущественных магов Земли.",409600,"409600.jpg"
Кредо убийцы,2016,23.99,"Простой бармен похищен таинственной корпорацией, которая помещает его в машину под названием Анимус, чтобы вызвать в его памяти воспоминания о предках, большинство из которых были ассасинами и определить местонахождение опасных и могущественных артефактов.",690615,"690615.jpg"
Снайпер,2014,13.99,"Экранизация мемуаров «морского котика» из Техаса Криса Кайла, который служил снайпером в Ираке и стал рекордсменом по числу убитых солдат противника, за что иракцы прозвали его дьяволом. Кроме самой войны, фильм рассказывает о воспоминаниях жены Криса, которая была свидетелем растущей привязанности мужа к его сослуживцам.",683919,"683919.jpg"
